data/synchronization/1_start_up/F0000CH2.CSV

Record Length,2.500000e+03,,  -0.000050000000,   3.20000,
Sample Interval,4.000000e-08,,  -0.000049960000,   3.28000,
Trigger Point,1.250000000000e+03,,  -0.000049920000,   3.28000,
,,,  -0.000049880000,   3.20000,
,,,  -0.000049840000,   3.36000,
,,,  -0.000049800000,   3.28000,
Source,CH2,,  -0.000049760000,   3.28000,
Vertical Units,V,,  -0.000049720000,   3.28000,
Vertical Scale,2.000000e+00,,  -0.000049680000,   3.28000,
Vertical Offset,3.200000e-01,,  -0.000049640000,   3.20000,
Horizontal Units,s,,  -0.000049600000,   3.36000,
Horizontal Scale,1.000000e-05,,  -0.000049560000,   3.20000,
Pt Fmt,Y,,  -0.000049520000,   3.28000,
Yzero,0.000000e+00,,  -0.000049480000,   3.28000,
Probe Atten,1.000000e+01,,  -0.000049440000,   3.28000,
Model Number,TBS1154,,  -0.000049400000,   3.28000,
Serial Number,C010344,,  -0.000049360000,   3.28000,
Firmware Version,FV:v26.05,,  -0.000049320000,   3.28000,
,,,-00.000049280000,   3.36000,
,,,-00.000049240000,   3.28000,
,,,-00.000049200000,   3.28000,
,,,-00.000049160000,   3.36000,
,,,-00.000049120000,   3.28000,
,,,-00.000049080000,   3.36000,
,,,-00.000049040000,   3.36000,
,,,-00.000049000000,   3.20000,
,,,-00.000048960000,   3.20000,
,,,-00.000048920000,   3.36000,
,,,-00.000048880000,   3.36000,
,,,-00.000048840000,   3.28000,
,,,-00.000048800000,   3.28000,
,,,-00.000048760000,   3.28000,
,,,-00.000048720000,   3.20000,
,,,-00.000048680000,   3.28000,
,,,-00.000048640000,   3.20000,
,,,-00.000048600000,   3.36000,
,,,-00.000048560000,   3.20000,
,,,-00.000048520000,   3.36000,
,,,-00.000048480000,   3.20000,
,,,-00.000048440000,   3.36000,
,,,-00.000048400000,   3.20000,
,,,-00.000048360000,   3.28000,
,,,-00.000048320000,   3.28000,
,,,-00.000048280000,   3.28000,
,,,-00.000048240000,   3.36000,
,,,-00.000048200000,   3.28000,
,,,-00.000048160000,   3.20000,
,,,-00.000048120000,   3.28000,
,,,-00.000048080000,   3.28000,
,,,-00.000048040000,   3.20000,
,,,-00.000048000000,   3.20000,
,,,-00.000047960000,   3.28000,
,,,-00.000047920000,   3.28000,
,,,-00.000047880000,   3.28000,
,,,-00.000047840000,   3.36000,
,,,-00.000047800000,   3.20000,
,,,-00.000047760000,   3.28000,
,,,-00.000047720000,   3.28000,
,,,-00.000047680000,   3.20000,
,,,-00.000047640000,   3.36000,
,,,-00.000047600000,   3.20000,
,,,-00.000047560000,   3.20000,
,,,-00.000047520000,   3.28000,
,,,-00.000047480000,   3.28000,
,,,-00.000047440000,   3.28000,
,,,-00.000047400000,   3.28000,
,,,-00.000047360000,   3.28000,
,,,-00.000047320000,   3.28000,
,,,-00.000047280000,   3.28000,
,,,-00.000047240000,   3.28000,
,,,-00.000047200000,   3.36000,
,,,-00.000047160000,   3.20000,
,,,-00.000047120000,   3.28000,
,,,-00.000047080000,   3.28000,
,,,-00.000047040000,   3.28000,
,,,-00.000047000000,   3.28000,
,,,-00.000046960000,   3.20000,
,,,-00.000046920000,   3.36000,
,,,-00.000046880000,   3.28000,
,,,-00.000046840000,   3.20000,
,,,-00.000046800000,   3.28000,
,,,-00.000046760000,   3.20000,
,,,-00.000046720000,   3.20000,
,,,-00.000046680000,   3.20000,
,,,-00.000046640000,   3.28000,
,,,-00.000046600000,   3.20000,
,,,-00.000046560000,   3.28000,
,,,-00.000046520000,   3.36000,
,,,-00.000046480000,   3.28000,
,,,-00.000046440000,   3.28000,
,,,-00.000046400000,   3.20000,
,,,-00.000046360000,   3.28000,
,,,-00.000046320000,   3.20000,
,,,-00.000046280000,   3.36000,
,,,-00.000046240000,   3.20000,
,,,-00.000046200000,   3.36000,
,,,-00.000046160000,   3.28000,
,,,-00.000046120000,   3.20000,
,,,-00.000046080000,   3.28000,
,,,-00.000046040000,   3.28000,
,,,-00.000046000000,   3.20000,
,,,-00.000045960000,   3.28000,
,,,-00.000045920000,   3.20000,
,,,-00.000045880000,   3.28000,
,,,-00.000045840000,   3.28000,
,,,-00.000045800000,   3.20000,
,,,-00.000045760000,   3.36000,
,,,-00.000045720000,   3.28000,
,,,-00.000045680000,   3.20000,
,,,-00.000045640000,   3.36000,
,,,-00.000045600000,  -0.16000,
,,,-00.000045560000,   0.16000,
,,,-00.000045520000,   0.16000,
,,,-00.000045480000,   0.08000,
,,,-00.000045440000,   0.16000,
,,,-00.000045400000,   0.16000,
,,,-00.000045360000,   0.16000,
,,,-00.000045320000,   0.16000,
,,,-00.000045280000,   0.08000,
,,,-00.000045240000,   0.24000,
,,,-00.000045200000,   0.24000,
,,,-00.000045160000,   0.16000,
,,,-00.000045120000,   0.24000,
,,,-00.000045080000,   0.16000,
,,,-00.000045040000,   0.16000,
,,,-00.000045000000,   0.08000,
,,,-00.000044960000,   0.16000,
,,,-00.000044920000,   0.16000,
,,,-00.000044880000,   0.24000,
,,,-00.000044840000,   0.16000,
,,,-00.000044800000,   0.16000,
,,,-00.000044760000,   0.08000,
,,,-00.000044720000,   0.16000,
,,,-00.000044680000,   0.08000,
,,,-00.000044640000,   0.24000,
,,,-00.000044600000,   0.16000,
,,,-00.000044560000,   0.08000,
,,,-00.000044520000,   0.16000,
,,,-00.000044480000,   0.24000,
,,,-00.000044440000,   0.16000,
,,,-00.000044400000,   0.16000,
,,,-00.000044360000,   0.16000,
,,,-00.000044320000,   0.16000,
,,,-00.000044280000,   0.24000,
,,,-00.000044240000,   0.08000,
,,,-00.000044200000,   0.08000,
,,,-00.000044160000,   0.08000,
,,,-00.000044120000,   0.16000,
,,,-00.000044080000,   0.16000,
,,,-00.000044040000,   0.08000,
,,,-00.000044000000,   0.24000,
,,,-00.000043960000,   0.16000,
,,,-00.000043920000,   0.16000,
,,,-00.000043880000,   0.24000,
,,,-00.000043840000,   0.16000,
,,,-00.000043800000,   0.16000,
,,,-00.000043760000,   0.16000,
,,,-00.000043720000,   0.16000,
,,,-00.000043680000,   0.08000,
,,,-00.000043640000,   0.08000,
,,,-00.000043600000,   0.00000,
,,,-00.000043560000,   0.16000,
,,,-00.000043520000,   0.08000,
,,,-00.000043480000,   0.16000,
,,,-00.000043440000,   0.08000,
,,,-00.000043400000,   0.08000,
,,,-00.000043360000,   0.16000,
,,,-00.000043320000,   0.16000,
,,,-00.000043280000,   0.16000,
,,,-00.000043240000,   0.24000,
,,,-00.000043200000,   0.24000,
,,,-00.000043160000,   0.24000,
,,,-00.000043120000,   0.08000,
,,,-00.000043080000,   0.08000,
,,,-00.000043040000,   0.24000,
,,,-00.000043000000,   0.16000,
,,,-00.000042960000,   0.16000,
,,,-00.000042920000,   0.08000,
,,,-00.000042880000,   0.16000,
,,,-00.000042840000,   0.24000,
,,,-00.000042800000,   0.16000,
,,,-00.000042760000,   0.16000,
,,,-00.000042720000,   0.08000,
,,,-00.000042680000,   0.32000,
,,,-00.000042640000,   0.24000,
,,,-00.000042600000,   0.16000,
,,,-00.000042560000,   0.08000,
,,,-00.000042520000,   0.16000,
,,,-00.000042480000,   0.16000,
,,,-00.000042440000,   0.16000,
,,,-00.000042400000,   0.16000,
,,,-00.000042360000,   0.16000,
,,,-00.000042320000,   0.16000,
,,,-00.000042280000,   0.16000,
,,,-00.000042240000,   0.16000,
,,,-00.000042200000,   0.16000,
,,,-00.000042160000,   0.08000,
,,,-00.000042120000,   0.08000,
,,,-00.000042080000,   0.16000,
,,,-00.000042040000,   0.16000,
,,,-00.000042000000,   0.16000,
,,,-00.000041960000,   0.08000,
,,,-00.000041920000,   0.08000,
,,,-00.000041880000,   0.08000,
,,,-00.000041840000,   0.16000,
,,,-00.000041800000,   0.08000,
,,,-00.000041760000,   0.24000,
,,,-00.000041720000,   0.08000,
,,,-00.000041680000,   0.08000,
,,,-00.000041640000,   0.16000,
,,,-00.000041600000,   0.16000,
,,,-00.000041560000,   0.08000,
,,,-00.000041520000,   0.16000,
,,,-00.000041480000,   0.16000,
,,,-00.000041440000,   0.16000,
,,,-00.000041400000,   0.24000,
,,,-00.000041360000,   0.16000,
,,,-00.000041320000,   0.00000,
,,,-00.000041280000,   0.24000,
,,,-00.000041240000,   0.16000,
,,,-00.000041200000,   0.16000,
,,,-00.000041160000,   0.08000,
,,,-00.000041120000,   0.16000,
,,,-00.000041080000,   0.16000,
,,,-00.000041040000,   0.16000,
,,,-00.000041000000,   0.16000,
,,,-00.000040960000,   0.24000,
,,,-00.000040920000,   0.16000,
,,,-00.000040880000,   0.16000,
,,,-00.000040840000,   0.16000,
,,,-00.000040800000,   0.08000,
,,,-00.000040760000,   0.24000,
,,,-00.000040720000,   0.08000,
,,,-00.000040680000,   0.16000,
,,,-00.000040640000,   0.08000,
,,,-00.000040600000,   0.24000,
,,,-00.000040560000,   0.24000,
,,,-00.000040520000,   0.16000,
,,,-00.000040480000,   0.16000,
,,,-00.000040440000,   0.08000,
,,,-00.000040400000,   0.16000,
,,,-00.000040360000,   0.16000,
,,,-00.000040320000,   0.24000,
,,,-00.000040280000,   0.08000,
,,,-00.000040240000,   0.08000,
,,,-00.000040200000,   0.16000,
,,,-00.000040160000,   0.08000,
,,,-00.000040120000,   0.08000,
,,,-00.000040080000,   0.16000,
,,,-00.000040040000,   0.16000,
,,,-00.000040000000,   0.16000,
,,,-00.000039960000,   0.24000,
,,,-00.000039920000,   0.16000,
,,,-00.000039880000,   0.08000,
,,,-00.000039840000,   0.16000,
,,,-00.000039800000,   0.16000,
,,,-00.000039760000,   0.08000,
,,,-00.000039720000,   0.24000,
,,,-00.000039680000,   0.00000,
,,,-00.000039640000,   0.08000,
,,,-00.000039600000,   0.16000,
,,,-00.000039560000,   0.16000,
,,,-00.000039520000,   0.08000,
,,,-00.000039480000,   0.16000,
,,,-00.000039440000,   0.08000,
,,,-00.000039400000,   0.16000,
,,,-00.000039360000,   0.16000,
,,,-00.000039320000,   0.16000,
,,,-00.000039280000,   0.16000,
,,,-00.000039240000,   0.16000,
,,,-00.000039200000,   0.16000,
,,,-00.000039160000,   0.16000,
,,,-00.000039120000,   0.08000,
,,,-00.000039080000,   0.16000,
,,,-00.000039040000,   0.08000,
,,,-00.000039000000,   0.16000,
,,,-00.000038960000,   0.08000,
,,,-00.000038920000,   0.16000,
,,,-00.000038880000,   0.24000,
,,,-00.000038840000,   0.16000,
,,,-00.000038800000,   0.08000,
,,,-00.000038760000,   0.00000,
,,,-00.000038720000,   0.16000,
,,,-00.000038680000,   0.24000,
,,,-00.000038640000,   0.24000,
,,,-00.000038600000,   0.24000,
,,,-00.000038560000,   0.16000,
,,,-00.000038520000,   0.16000,
,,,-00.000038480000,   0.08000,
,,,-00.000038440000,   0.08000,
,,,-00.000038400000,   0.16000,
,,,-00.000038360000,   0.24000,
,,,-00.000038320000,   0.08000,
,,,-00.000038280000,   0.16000,
,,,-00.000038240000,   0.16000,
,,,-00.000038200000,   0.16000,
,,,-00.000038160000,   0.16000,
,,,-00.000038120000,   0.08000,
,,,-00.000038080000,   0.16000,
,,,-00.000038040000,   0.16000,
,,,-00.000038000000,   0.24000,
,,,-00.000037960000,   0.16000,
,,,-00.000037920000,   0.16000,
,,,-00.000037880000,   0.16000,
,,,-00.000037840000,   0.16000,
,,,-00.000037800000,   0.16000,
,,,-00.000037760000,   0.08000,
,,,-00.000037720000,   0.16000,
,,,-00.000037680000,   0.16000,
,,,-00.000037640000,   0.16000,
,,,-00.000037600000,   0.24000,
,,,-00.000037560000,   0.08000,
,,,-00.000037520000,   0.16000,
,,,-00.000037480000,   0.08000,
,,,-00.000037440000,   0.08000,
,,,-00.000037400000,   0.24000,
,,,-00.000037360000,   0.08000,
,,,-00.000037320000,   0.16000,
,,,-00.000037280000,   0.16000,
,,,-00.000037240000,   0.24000,
,,,-00.000037200000,   0.16000,
,,,-00.000037160000,   0.16000,
,,,-00.000037120000,   0.08000,
,,,-00.000037080000,   0.16000,
,,,-00.000037040000,   0.08000,
,,,-00.000037000000,   0.08000,
,,,-00.000036960000,   0.08000,
,,,-00.000036920000,   0.16000,
,,,-00.000036880000,   0.16000,
,,,-00.000036840000,   0.16000,
,,,-00.000036800000,   0.16000,
,,,-00.000036760000,   0.16000,
,,,-00.000036720000,   0.16000,
,,,-00.000036680000,   0.16000,
,,,-00.000036640000,   0.08000,
,,,-00.000036600000,   0.16000,
,,,-00.000036560000,   0.08000,
,,,-00.000036520000,   0.08000,
,,,-00.000036480000,   0.08000,
,,,-00.000036440000,   0.16000,
,,,-00.000036400000,   0.08000,
,,,-00.000036360000,   0.16000,
,,,-00.000036320000,   0.16000,
,,,-00.000036280000,   0.16000,
,,,-00.000036240000,   0.08000,
,,,-00.000036200000,   0.08000,
,,,-00.000036160000,   0.08000,
,,,-00.000036120000,   0.08000,
,,,-00.000036080000,   0.16000,
,,,-00.000036040000,   0.16000,
,,,-00.000036000000,   0.08000,
,,,-00.000035960000,   0.16000,
,,,-00.000035920000,   0.16000,
,,,-00.000035880000,   0.16000,
,,,-00.000035840000,   0.16000,
,,,-00.000035800000,   0.08000,
,,,-00.000035760000,   0.16000,
,,,-00.000035720000,   0.08000,
,,,-00.000035680000,   0.24000,
,,,-00.000035640000,   0.16000,
,,,-00.000035600000,   0.24000,
,,,-00.000035560000,   0.16000,
,,,-00.000035520000,   0.16000,
,,,-00.000035480000,   0.16000,
,,,-00.000035440000,   0.16000,
,,,-00.000035400000,   0.24000,
,,,-00.000035360000,   0.16000,
,,,-00.000035320000,   0.08000,
,,,-00.000035280000,   0.08000,
,,,-00.000035240000,   0.16000,
,,,-00.000035200000,   0.24000,
,,,-00.000035160000,   0.16000,
,,,-00.000035120000,   0.16000,
,,,-00.000035080000,   0.08000,
,,,-00.000035040000,   0.08000,
,,,-00.000035000000,   0.16000,
,,,-00.000034960000,   0.16000,
,,,-00.000034920000,   0.24000,
,,,-00.000034880000,   0.16000,
,,,-00.000034840000,   0.08000,
,,,-00.000034800000,   0.16000,
,,,-00.000034760000,   0.08000,
,,,-00.000034720000,   0.08000,
,,,-00.000034680000,   0.08000,
,,,-00.000034640000,   0.16000,
,,,-00.000034600000,   0.16000,
,,,-00.000034560000,   0.24000,
,,,-00.000034520000,   0.16000,
,,,-00.000034480000,   0.16000,
,,,-00.000034440000,   0.08000,
,,,-00.000034400000,   0.16000,
,,,-00.000034360000,   0.08000,
,,,-00.000034320000,   0.16000,
,,,-00.000034280000,   0.08000,
,,,-00.000034240000,   0.16000,
,,,-00.000034200000,   0.16000,
,,,-00.000034160000,   0.16000,
,,,-00.000034120000,   0.16000,
,,,-00.000034080000,   0.16000,
,,,-00.000034040000,   0.24000,
,,,-00.000034000000,   0.16000,
,,,-00.000033960000,   0.16000,
,,,-00.000033920000,   0.16000,
,,,-00.000033880000,   0.16000,
,,,-00.000033840000,   0.24000,
,,,-00.000033800000,   0.08000,
,,,-00.000033760000,   0.24000,
,,,-00.000033720000,   0.08000,
,,,-00.000033680000,   0.16000,
,,,-00.000033640000,   0.16000,
,,,-00.000033600000,   0.16000,
,,,-00.000033560000,   0.08000,
,,,-00.000033520000,   0.08000,
,,,-00.000033480000,   0.16000,
,,,-00.000033440000,   0.16000,
,,,-00.000033400000,   0.08000,
,,,-00.000033360000,   0.16000,
,,,-00.000033320000,   0.24000,
,,,-00.000033280000,   0.16000,
,,,-00.000033240000,   0.16000,
,,,-00.000033200000,   0.16000,
,,,-00.000033160000,   0.16000,
,,,-00.000033120000,   0.08000,
,,,-00.000033080000,   3.12000,
,,,-00.000033040000,   3.28000,
,,,-00.000033000000,   3.28000,
,,,-00.000032960000,   3.28000,
,,,-00.000032920000,   3.28000,
,,,-00.000032880000,   3.12000,
,,,-00.000032840000,   3.28000,
,,,-00.000032800000,   3.28000,
,,,-00.000032760000,   3.28000,
,,,-00.000032720000,   3.20000,
,,,-00.000032680000,   3.28000,
,,,-00.000032640000,   3.20000,
,,,-00.000032600000,   3.28000,
,,,-00.000032560000,   3.20000,
,,,-00.000032520000,   3.28000,
,,,-00.000032480000,   3.28000,
,,,-00.000032440000,   3.28000,
,,,-00.000032400000,   3.28000,
,,,-00.000032360000,   3.20000,
,,,-00.000032320000,   3.20000,
,,,-00.000032280000,   3.20000,
,,,-00.000032240000,   3.20000,
,,,-00.000032200000,   3.20000,
,,,-00.000032160000,   3.20000,
,,,-00.000032120000,   3.28000,
,,,-00.000032080000,   3.28000,
,,,-00.000032040000,   3.28000,
,,,-00.000032000000,   3.20000,
,,,-00.000031960000,   3.20000,
,,,-00.000031920000,   3.28000,
,,,-00.000031880000,   3.28000,
,,,-00.000031840000,   3.20000,
,,,-00.000031800000,   3.28000,
,,,-00.000031760000,   3.20000,
,,,-00.000031720000,   3.36000,
,,,-00.000031680000,   3.28000,
,,,-00.000031640000,   3.20000,
,,,-00.000031600000,   3.20000,
,,,-00.000031560000,   3.20000,
,,,-00.000031520000,   3.28000,
,,,-00.000031480000,   3.28000,
,,,-00.000031440000,   3.20000,
,,,-00.000031400000,   3.36000,
,,,-00.000031360000,   3.28000,
,,,-00.000031320000,   3.28000,
,,,-00.000031280000,   3.28000,
,,,-00.000031240000,   3.20000,
,,,-00.000031200000,   3.20000,
,,,-00.000031160000,   3.28000,
,,,-00.000031120000,   3.28000,
,,,-00.000031080000,   3.28000,
,,,-00.000031040000,   3.28000,
,,,-00.000031000000,   3.28000,
,,,-00.000030960000,   3.28000,
,,,-00.000030920000,   3.20000,
,,,-00.000030880000,   3.12000,
,,,-00.000030840000,   3.20000,
,,,-00.000030800000,   3.28000,
,,,-00.000030760000,   3.36000,
,,,-00.000030720000,   3.28000,
,,,-00.000030680000,   3.28000,
,,,-00.000030640000,   3.20000,
,,,-00.000030600000,   3.20000,
,,,-00.000030560000,   3.20000,
,,,-00.000030520000,   3.28000,
,,,-00.000030480000,   3.20000,
,,,-00.000030440000,   3.20000,
,,,-00.000030400000,   3.20000,
,,,-00.000030360000,   3.28000,
,,,-00.000030320000,   3.36000,
,,,-00.000030280000,   3.20000,
,,,-00.000030240000,   3.20000,
,,,-00.000030200000,   3.36000,
,,,-00.000030160000,   3.28000,
,,,-00.000030120000,   3.28000,
,,,-00.000030080000,   3.20000,
,,,-00.000030040000,   3.28000,
,,,-00.000030000000,   3.28000,
,,,-00.000029960000,   3.36000,
,,,-00.000029920000,   3.20000,
,,,-00.000029880000,   3.28000,
,,,-00.000029840000,   3.28000,
,,,-00.000029800000,   3.28000,
,,,-00.000029760000,   3.20000,
,,,-00.000029720000,   3.20000,
,,,-00.000029680000,   3.20000,
,,,-00.000029640000,   3.20000,
,,,-00.000029600000,   3.20000,
,,,-00.000029560000,   3.28000,
,,,-00.000029520000,   3.28000,
,,,-00.000029480000,   3.28000,
,,,-00.000029440000,   3.28000,
,,,-00.000029400000,   3.20000,
,,,-00.000029360000,   3.36000,
,,,-00.000029320000,   3.28000,
,,,-00.000029280000,   3.28000,
,,,-00.000029240000,   3.28000,
,,,-00.000029200000,   3.36000,
,,,-00.000029160000,   3.20000,
,,,-00.000029120000,   3.28000,
,,,-00.000029080000,   3.36000,
,,,-00.000029040000,   3.28000,
,,,-00.000029000000,   3.28000,
,,,-00.000028960000,   3.28000,
,,,-00.000028920000,   3.28000,
,,,-00.000028880000,   3.28000,
,,,-00.000028840000,   3.28000,
,,,-00.000028800000,   3.20000,
,,,-00.000028760000,   3.36000,
,,,-00.000028720000,   3.28000,
,,,-00.000028680000,   3.28000,
,,,-00.000028640000,   3.28000,
,,,-00.000028600000,   3.20000,
,,,-00.000028560000,   3.36000,
,,,-00.000028520000,   3.20000,
,,,-00.000028480000,   3.36000,
,,,-00.000028440000,   3.28000,
,,,-00.000028400000,   3.28000,
,,,-00.000028360000,   3.28000,
,,,-00.000028320000,   3.28000,
,,,-00.000028280000,   3.28000,
,,,-00.000028240000,   3.20000,
,,,-00.000028200000,   3.28000,
,,,-00.000028160000,   3.28000,
,,,-00.000028120000,   3.28000,
,,,-00.000028080000,   3.28000,
,,,-00.000028040000,   3.28000,
,,,-00.000028000000,   3.28000,
,,,-00.000027960000,   3.28000,
,,,-00.000027920000,   3.28000,
,,,-00.000027880000,   3.28000,
,,,-00.000027840000,   3.28000,
,,,-00.000027800000,   3.28000,
,,,-00.000027760000,   3.28000,
,,,-00.000027720000,   3.28000,
,,,-00.000027680000,   3.28000,
,,,-00.000027640000,   3.28000,
,,,-00.000027600000,   3.28000,
,,,-00.000027560000,   3.28000,
,,,-00.000027520000,   3.20000,
,,,-00.000027480000,   3.28000,
,,,-00.000027440000,   3.20000,
,,,-00.000027400000,   3.28000,
,,,-00.000027360000,   3.28000,
,,,-00.000027320000,   3.36000,
,,,-00.000027280000,   3.20000,
,,,-00.000027240000,   3.28000,
,,,-00.000027200000,   3.36000,
,,,-00.000027160000,   3.20000,
,,,-00.000027120000,   3.36000,
,,,-00.000027080000,   3.20000,
,,,-00.000027040000,   3.20000,
,,,-00.000027000000,   3.20000,
,,,-00.000026960000,   3.28000,
,,,-00.000026920000,   3.20000,
,,,-00.000026880000,   3.28000,
,,,-00.000026840000,   3.28000,
,,,-00.000026800000,   3.28000,
,,,-00.000026760000,   3.20000,
,,,-00.000026720000,   3.28000,
,,,-00.000026680000,   3.28000,
,,,-00.000026640000,   3.28000,
,,,-00.000026600000,   3.28000,
,,,-00.000026560000,   3.28000,
,,,-00.000026520000,   3.28000,
,,,-00.000026480000,   3.28000,
,,,-00.000026440000,   3.28000,
,,,-00.000026400000,   3.36000,
,,,-00.000026360000,   3.36000,
,,,-00.000026320000,   3.20000,
,,,-00.000026280000,   3.20000,
,,,-00.000026240000,   3.28000,
,,,-00.000026200000,   3.28000,
,,,-00.000026160000,   3.28000,
,,,-00.000026120000,   3.28000,
,,,-00.000026080000,   3.36000,
,,,-00.000026040000,   3.20000,
,,,-00.000026000000,   3.28000,
,,,-00.000025960000,   3.36000,
,,,-00.000025920000,   3.20000,
,,,-00.000025880000,   3.20000,
,,,-00.000025840000,   3.20000,
,,,-00.000025800000,   3.28000,
,,,-00.000025760000,   3.28000,
,,,-00.000025720000,   3.28000,
,,,-00.000025680000,   3.20000,
,,,-00.000025640000,   3.28000,
,,,-00.000025600000,   3.28000,
,,,-00.000025560000,   3.28000,
,,,-00.000025520000,   3.36000,
,,,-00.000025480000,   3.20000,
